…
```r
# From all joins available in dplyr, explicitly using left_join()
# The average steps is joined first (to make it easier to fill the missing values), 
# then removed after the missing values have been filled

newdata <- data %>% 
              left_join(intervalaverage, by = "interval") %>%
              mutate(steps = if_else(is.na(steps), average.steps, steps),
                     average.steps = NULL)

newdata
```

```
## # A tibble: 17,568 x 3
##     steps date       interval
##     <dbl> <date>     <fct>   
##  1 1.72   2012-10-01 0       
##  2 0.340  2012-10-01 5       
##  3 0.132  2012-10-01 10      
##  4 0.151  2012-10-01 15      
##  5 0.0755 2012-10-01 20      
##  6 2.09   2012-10-01 25      
##  7 0.528  2012-10-01 30      
##  8 0.868  2012-10-01 35      
##  9 0      2012-10-01 40      
## 10 1.47   2012-10-01 45      
## # ... with 17,558 more rows
```
…
